<svg width="190" height="190" viewBox="0 0 190 190" fill="none" xmlns="http://www.w3.org/2000/svg">
<circle cx="95" cy="95" r="95" fill="#FAFAFA"/>
<path d="M116.675 141.269C116.2 140.793 115.575 140.543 114.9 140.543H107.7C107.675 140.543 107.675 140.543 107.65 140.543C104.125 140.543 100.6 139.967 97.25 138.865C96.425 138.589 95.525 138.714 94.8 139.19C93.125 140.317 93.475 142.872 95.375 143.523C99.325 144.85 103.475 145.551 107.65 145.551C107.675 145.551 107.675 145.551 107.7 145.551H113.875L126.575 158.274C127.075 158.775 127.7 159 128.35 159C129 159 129.625 158.75 130.125 158.274C131.1 157.297 131.1 155.719 130.125 154.743L116.675 141.269Z" fill="#353535"/>
<path d="M156.5 125.767C155.85 125.767 155.2 126.042 154.725 126.493C154.25 126.969 154 127.595 154 128.271C154 128.922 154.275 129.573 154.725 130.049C155.2 130.525 155.825 130.775 156.5 130.775C157.175 130.775 157.8 130.5 158.275 130.049C158.75 129.573 159 128.947 159 128.271C159 127.62 158.725 126.969 158.275 126.493C157.8 126.042 157.15 125.767 156.5 125.767Z" fill="#353535"/>
<path d="M145.575 113.796L145.6 103.678C145.6 96.0393 143.375 88.6263 139.125 82.2651L128.125 65.8362C126.625 63.5822 124.325 62.0796 121.675 61.5787C119.025 61.0778 116.35 61.6539 114.125 63.2066C110.5 65.736 109.075 70.3191 110.35 74.4013L103.825 67.8648C102.85 66.888 101.275 66.888 100.3 67.8648C99.325 68.8415 99.325 70.4193 100.3 71.396L114.325 85.4457C115.625 86.748 117.625 86.8732 119.05 85.7212C120.5 84.5942 120.85 82.6157 119.9 81.0379L115.6 73.9254C114.25 71.6965 114.875 68.7663 117 67.2888C118.1 66.5124 119.425 66.2369 120.75 66.4623C122.075 66.7127 123.2 67.4641 123.95 68.591L134.95 85.0199C138.65 90.5546 140.6 96.991 140.6 103.628L140.575 114.797C140.575 115.473 140.825 116.1 141.3 116.575L148 123.287C148.5 123.788 149.125 124.013 149.775 124.013C150.425 124.013 151.05 123.763 151.55 123.287C152.525 122.31 152.525 120.733 151.55 119.756L145.575 113.796Z" fill="#353535"/>
<path d="M96.15 66.2369C96.8 66.2369 97.45 65.9614 97.925 65.5106C98.4 65.0348 98.65 64.4087 98.65 63.7325C98.65 63.0563 98.375 62.4302 97.925 61.9544C97.475 61.4785 96.825 61.2281 96.15 61.2281C95.5 61.2281 94.85 61.5036 94.375 61.9544C93.9 62.4302 93.65 63.0563 93.65 63.7325C93.65 64.3836 93.925 65.0348 94.375 65.5106C94.85 65.9614 95.5 66.2369 96.15 66.2369Z" fill="#353535"/>
<path d="M121.125 100.823C122.1 99.846 122.1 98.2683 121.125 97.2916C120.15 96.3148 118.575 96.3148 117.6 97.2916L116.5 98.3684C111.825 103.052 111.825 110.665 116.5 115.323C117 115.824 117.625 116.05 118.275 116.05C118.925 116.05 119.55 115.799 120.05 115.323C121.025 114.347 121.025 112.769 120.05 111.792C117.325 109.062 117.325 104.629 120.05 101.9L121.125 100.823Z" fill="#353535"/>
<path d="M150.325 44.5238C148.725 44.5238 147.175 44.9746 145.85 45.801C144.5 44.9746 142.95 44.5238 141.375 44.5238C136.6 44.5238 132.7 48.5058 132.7 53.3643C132.7 56.1192 134.675 59.45 138.775 63.5072C141.525 66.237 144.225 68.3407 144.35 68.4158C144.8 68.7664 145.325 68.9417 145.875 68.9417C146.425 68.9417 146.95 68.7664 147.4 68.4158C147.525 68.3407 150.225 66.237 152.975 63.5072C157.05 59.45 159.05 56.1192 159.05 53.3643C159 48.4808 155.1 44.5238 150.325 44.5238ZM145.85 63.2317C141.675 59.7506 137.7 55.3178 137.7 53.3643C137.7 51.2356 139.35 49.5326 141.375 49.5326C142.375 49.5326 143.325 49.9584 144.025 50.7097C144.5 51.2356 145.175 51.5111 145.85 51.5111C146.525 51.5111 147.225 51.2106 147.7 50.7097C148.4 49.9584 149.35 49.5326 150.35 49.5326C152.375 49.5326 154.025 51.2606 154.025 53.3643C154 55.3178 150.025 59.7506 145.85 63.2317Z" fill="#353535"/>
<path d="M44.15 55.4179C44.675 55.4179 45.225 55.2426 45.675 54.892C45.8 54.8169 48.5 52.7382 51.25 50.0084C55.325 45.9513 57.325 42.6204 57.325 39.8656C57.325 34.982 53.425 31 48.65 31C47.05 31 45.5 31.4508 44.15 32.2772C42.825 31.4508 41.275 31 39.675 31C34.9 31 31 34.982 31 39.8405C31 42.5954 32.975 45.9262 37.075 49.9834C39.825 52.7132 42.525 54.8169 42.65 54.892C43.1 55.2677 43.625 55.4179 44.15 55.4179ZM36 39.8405C36 37.7368 37.65 36.0088 39.675 36.0088C40.675 36.0088 41.625 36.4346 42.325 37.1859C42.8 37.7118 43.475 37.9873 44.175 37.9873C44.875 37.9873 45.55 37.6868 46 37.1859C46.7 36.4346 47.65 36.0088 48.65 36.0088C50.675 36.0088 52.325 37.7368 52.325 39.8405C52.325 41.794 48.35 46.2268 44.175 49.7079C39.975 46.2518 36 41.819 36 39.8405Z" fill="#353535"/>
<path d="M97.325 123.312L92.2 123.337C92.675 121.184 92.625 119.13 92 117.377L93.525 108.762L85.025 112.218C84.65 112.193 84.3 112.218 83.925 112.243C83.9 111.617 83.825 111.016 83.7 110.415L85.425 100.698L76.75 104.229C74.7 104.078 72.45 104.655 70.325 105.882L71.275 100.597L61.95 104.404L61.975 104.454C61.625 104.529 61.25 104.629 60.875 104.755C60.225 104.955 59.575 105.231 58.95 105.556L51.95 98.5187L50.925 97.4919C49.05 95.6136 49.05 92.5582 50.925 90.6799C52.675 88.9269 55.45 88.8016 57.35 90.3544L58.725 91.7318L58.75 91.7067L63.65 96.6154C64.15 97.1163 64.775 97.3416 65.425 97.3416C66.075 97.3416 66.7 97.0912 67.2 96.6154C68.175 95.6387 68.175 94.0609 67.2 93.0842L56.425 82.2902V82.3403L55.85 81.7643C53.975 79.886 53.975 76.8306 55.85 74.9523C57.6 73.1992 60.375 73.074 62.275 74.6267L73.525 85.8965C74.025 86.3974 74.65 86.6228 75.3 86.6228C75.95 86.6228 76.575 86.3724 77.075 85.8965C78.05 84.9198 78.05 83.342 77.075 82.3653L61.25 66.5625C59.375 64.6842 59.375 61.6289 61.25 59.7506C63.125 57.8723 66.175 57.8723 68.05 59.7506L86.9 78.6838C87.4 79.1847 88.025 79.4101 88.675 79.4101C89.325 79.4101 89.95 79.1597 90.45 78.6838C91.425 77.7071 91.425 76.1294 90.45 75.1526L76.125 60.7523C74.6 58.874 74.7 56.0691 76.45 54.316C78.325 52.4377 81.375 52.4377 83.25 54.316L88.5 59.5753C89.475 60.552 91.05 60.552 92.025 59.5753C93 58.5985 93 57.0208 92.025 56.0441L86.775 50.7848C82.95 46.9531 76.725 46.9531 72.925 50.7848C71.65 52.0621 70.825 53.5897 70.4 55.1926C68.75 53.9904 66.775 53.3393 64.675 53.3393C62.05 53.3393 59.6 54.3661 57.75 56.2194C54.3 59.6754 53.975 65.0599 56.725 68.8916C55.1 69.3174 53.575 70.1689 52.325 71.4211C48.725 75.0274 48.525 80.7876 51.725 84.6443C50.15 85.0701 48.65 85.9216 47.425 87.1487C43.6 90.9805 43.6 97.2164 47.425 101.023L47.5 101.098L54.925 108.536C54.425 109.037 53.95 109.563 53.5 110.139C50.625 113.771 49.375 118.078 50.1 121.634C50 121.76 49.9 121.86 49.825 121.985C45.75 127.019 44.025 131.552 44.25 136.561C43.225 138.289 40.7 142.596 39.925 144.55C39.225 146.378 38.275 149.784 37.15 154.743C36.85 156.095 37.675 157.422 39.025 157.748C39.225 157.798 39.4 157.823 39.575 157.823C40.725 157.823 41.75 157.047 42 155.87C43.35 150.009 44.125 147.48 44.55 146.378C45.175 144.75 47.9 140.142 48.875 138.514C49.15 138.063 49.275 137.537 49.225 137.011C48.875 132.979 50.175 129.423 53.575 125.141C53.9 124.74 54.225 124.339 54.575 123.988C55.225 123.287 55.4 122.285 55.075 121.409L55 121.184C54.4 119.43 54.9 116.325 57.275 113.295C58.7 111.492 60.55 110.139 62.325 109.563C63.15 109.288 64.65 108.987 65.725 109.763C65.6 109.914 65.475 110.039 65.375 110.189C63.1 113.044 61.8 116.475 61.775 119.556C61.775 120.933 62.875 122.06 64.25 122.085C64.25 122.085 64.25 122.085 64.275 122.085C65.65 122.085 66.775 120.983 66.775 119.606C66.8 117.602 67.7 115.298 69.3 113.32C72.25 109.613 76.175 108.511 77.85 109.839C78.775 110.565 79.1 112.143 78.775 113.946C77.05 114.948 75.375 116.375 73.95 118.178C72.1 120.507 70.925 123.112 70.5 125.717C70.275 127.094 71.2 128.371 72.575 128.572C73.95 128.797 75.225 127.87 75.425 126.493C75.7 124.765 76.55 122.912 77.85 121.284C79.1 119.731 80.5 118.629 81.85 117.978C81.925 117.953 82.025 117.903 82.1 117.853C83.85 117.076 85.45 117.076 86.375 117.803C87.6 118.779 87.75 121.008 86.9 123.412C83 122.836 78.35 124.965 74.95 129.248C74.3 130.074 73.725 130.951 73.225 131.827C72.575 133.029 73 134.557 74.225 135.233C75.425 135.884 76.95 135.459 77.625 134.231C77.975 133.58 78.4 132.954 78.875 132.353C81.825 128.647 85.75 127.545 87.425 128.872C89.1 130.199 88.925 134.282 85.975 137.988C83.025 141.72 78.65 143.147 77 141.845C75.925 140.993 74.375 141.169 73.525 142.221C71.45 144.75 69.25 146.403 66.425 147.605C66.1 147.755 65.8 147.956 65.55 148.231L64.875 148.957C64.75 149.083 64.65 149.233 64.55 149.408L61.25 155.143C60.55 156.345 60.975 157.873 62.15 158.574C62.55 158.8 62.975 158.9 63.4 158.9C64.275 158.9 65.1 158.449 65.575 157.648L68.75 152.163L68.875 152.038C71.65 150.811 73.925 149.183 76.05 146.979C77.875 147.58 80.05 147.505 82.3 146.728C85.15 145.752 87.85 143.773 89.9 141.169C92.825 137.462 94 133.205 93.325 129.749L97.325 123.312Z" fill="#353535"/>
</svg>
